{
    "Jaws": {
        "cast": {
            "Roy Scheider": 0,
            "Robert Shaw": 1,
            "Richard Dreyfuss": 2
        },
        "composer": "John Williams",
        "director": "Steven Spielberg",
        "year": 1975
    }
}