{
    "The_Omen": {
        "cast": {
            "Gregory Peck": 0,
            "Lee Remick": 1,
            "Harvey Stephens": 2
        },
        "composer": "Jerry Goldsmith",
        "director": "Richard Donner",
        "year": 1976
    }
}