{
    "criteria": {
        "actor": "Julia Roberts",
        "composer": "John Williams",
        "director": "Steven Spielberg",
        "genre": "fantasy",
        "title_words": [],
        "year": 1991
    },
    "result": [
        "Hook"
    ]
}