{
    "cast": [
        "Beatrice Straight",
        "Bonnie Bedelia",
        "Brendan Fraser",
        "Brian Dennehy",
        "Burt Reynolds",
        "Carrie Fisher",
        "Charlton Heston",
        "Christian Bale",
        "Christopher Reeve",
        "Colin Farrell",
        "Craig T. Nelson",
        "Daniel Radcliffe",
        "David Bauer",
        "DeForest Kelley",
        "Dee Wallace",
        "Donald Pleasence",
        "Dustin Hoffman",
        "Edward Burns",
        "Elliott Gould",
        "Emma Watson",
        "Faye Dunaway",
        "Frank Langella",
        "Gena Rowlands",
        "Gene Hackman",
        "George C. Scott",
        "Gregory Peck",
        "Greta Scacchi",
        "Guy Pearce",
        "Harrison Ford",
        "Harvey Stephens",
        "Helen Slater",
        "Henry Thomas",
        "Hoyt Axton",
        "Ian Holm",
        "Jack Nicholson",
        "Jeanne Tripplehorn",
        "Jeff Goldblum",
        "JoBeth Williams",
        "John Hannah",
        "John Hurt",
        "John Huston",
        "John Malkovich",
        "Julia Ormond",
        "Julia Roberts",
        "Karen Allen",
        "Karl Malden",
        "Kevin Bacon",
        "Kevin Costner",
        "Kevin Spacey",
        "Kim Hunter",
        "Kirk Douglas",
        "Laura Dern",
        "Laurence Olivier",
        "Lee J. Cobb",
        "Lee Remick",
        "Leonard Nimoy",
        "Mark Hamill",
        "Marlon Brando",
        "Matt Damon",
        "Max Von Sydow",
        "Michael Douglas",
        "Miranda Richardson",
        "Nina van Pallandt",
        "Paul Freeman",
        "Peter Coyote",
        "Peter O'Toole",
        "Phoebe Cates",
        "Rachel Weisz",
        "Randy Quaid",
        "Richard Crenna",
        "Richard Dreyfuss",
        "Richard Gere",
        "Robert Shaw",
        "Robin Williams",
        "Roddy McDowall",
        "Roy Scheider",
        "Rupert Grint",
        "Russell Crowe",
        "Ryan O'Neal",
        "Sam Neill",
        "Sarah Miles",
        "Sean Connery",
        "Sharon Stone",
        "Sigourney Weaver",
        "Sterling Hayden",
        "Sylvester Stallone",
        "Tom Cruise",
        "Tom Hanks",
        "Tommy Lee Jones",
        "Walter Matthau",
        "William Holden",
        "William Shatner",
        "Zach Galligan"
    ],
    "composer": [
        "Jerry Goldsmith",
        "John Williams"
    ],
    "director": [
        "Alan J. Pakula",
        "Arthur Penn",
        "Blake Edwards",
        "Chris Columbus",
        "Curtis Hanson",
        "David Miller",
        "Franklin J. Schaffner",
        "George Lucas",
        "Jeannot Szwarc",
        "Jerry Zucker",
        "Joe Dante",
        "John Badham",
        "Oliver Stone",
        "Paul Verhoeven",
        "Richard C. Sarafian",
        "Richard Donner",
        "Ridley Scott",
        "Robert Altman",
        "Robert Wise",
        "Roman Polanski",
        "Stephen Sommers",
        "Steven Spielberg",
        "Ted Kotcheff",
        "Tobe Hooper"
    ],
    "genre": [
        "adventure",
        "fantasy",
        "film_noir",
        "historical",
        "horror",
        "medieval",
        "science_fiction",
        "superhero",
        "thriller",
        "war",
        "western"
    ],
    "year": [
        1962,
        1968,
        1970,
        1971,
        1973,
        1974,
        1975,
        1976,
        1977,
        1978,
        1979,
        1981,
        1982,
        1984,
        1987,
        1990,
        1991,
        1992,
        1993,
        1995,
        1997,
        1998,
        1999,
        2002
    ]
}