{
    "criteria": {
        "actor": null,
        "composer": "John Williams",
        "director": null,
        "genre": "western",
        "title_words": [],
        "year": null
    },
    "result": [
        "The_Man_Who_Loved_Cat_Dancing",
        "The_Missouri_Breaks"
    ]
}