{
    "criteria": {
        "actor": null,
        "composer": "Bernard Herrmann",
        "director": null,
        "genre": null,
        "title_words": [],
        "year": null
    },
    "result": []
}