{
    "First_Knight": {
        "cast": {
            "Richard Gere": 0,
            "Sean Connery": 1,
            "Julia Ormond": 2
        },
        "composer": "Jerry Goldsmith",
        "director": "Jerry Zucker",
        "year": 1995
    }
}