{
    "Empire_Of_The_Sun": {
        "cast": {
            "Christian Bale": 0,
            "John Malkovich": 1,
            "Miranda Richardson": 2
        },
        "composer": "John Williams",
        "director": "Steven Spielberg",
        "year": 1987
    }
}