{
    "ET_The_Extra_Terrestrial": {
        "cast": {
            "Dee Wallace": 0,
            "Henry Thomas": 1,
            "Peter Coyote": 2
        },
        "composer": "John Williams",
        "director": "Steven Spielberg",
        "year": 1982
    }
}