{
    "Jurassic_Park": {
        "cast": {
            "Sam Neill": 0,
            "Laura Dern": 1,
            "Jeff Goldblum": 2
        },
        "composer": "John Williams",
        "director": "Steven Spielberg",
        "year": 1993
    }
}