{
    "Star_Trek_The_Motion_Picture": {
        "cast": {
            "William Shatner": 0,
            "Leonard Nimoy": 1,
            "DeForest Kelley": 2
        },
        "composer": "Jerry Goldsmith",
        "director": "Robert Wise",
        "year": 1979
    }
}