{
    "Raiders_Of_The_Lost_Ark": {
        "cast": {
            "Harrison Ford": 0,
            "Karen Allen": 1,
            "Paul Freeman": 2
        },
        "composer": "John Williams",
        "director": "Steven Spielberg",
        "year": 1981
    }
}