{
    "The_Mummy": {
        "cast": {
            "Brendan Fraser": 0,
            "Rachel Weisz": 1,
            "John Hannah": 2
        },
        "composer": "Jerry Goldsmith",
        "director": "Stephen Sommers",
        "year": 1999
    }
}