{
    "The_Missouri_Breaks": {
        "cast": {
            "Marlon Brando": 0,
            "Jack Nicholson": 1,
            "Randy Quaid": 2
        },
        "composer": "John Williams",
        "director": "Arthur Penn",
        "year": 1976
    }
}